%YAML 1.1
%TAG !u! tag:unity3d.com,2011:
--- !u!162 &1
EditorUserSettings:
  m_ObjectHideFlags: 0
  serializedVersion: 4
  m_ConfigSettings:
    RecentlyUsedSceneGuid-0:
      value: 5653010356530d0e0b5b5977447b0a444f4f497f752976697f2f4e30e1e66261
      flags: 0
    RecentlyUsedSceneGuid-1:
      value: 54015250010d5a5a590b0a7a41210d4412164f2f2d712264292f4464e1b36769
      flags: 0
    RecentlyUsedSceneGuid-2:
      value: 5b570d525c0c0a5a5908097245740944444e4f7c792b70657f701b35e0b96660
      flags: 0
    RecentlyUsedSceneGuid-3:
      value: 550203075d060a0e5e5a5a2147700b444016497a7c7925692b7e4e60b7b1676e
      flags: 0
    RecentlyUsedSceneGuid-4:
      value: 5453015556510f5e58585d20137708134e4e4f7f2f7173652b2c4936e4b3306b
      flags: 0
    RecentlyUsedSceneGuid-5:
      value: 56040705015759090958597443225c4417154178282972322e284963b7b0356d
      flags: 0
    RecentlyUsedSceneGuid-6:
      value: 530105575c025b0c5a0b552148205c44174e1929797e713575791e61e7e46c69
      flags: 0
    RecentlyUsedSceneGuid-7:
      value: 5a5757560101590a5d0c0e24427b5d44434e4c7a7b7a23677f2b4565b7b5353a
      flags: 0
    RecentlyUsedSceneGuid-8:
      value: 5b04525456040c0f080d0f2015750c444f4e19787f2e27337d791c64e1b2316d
      flags: 0
    vcSharedLogLevel:
      value: 0d5e400f0650
      flags: 0
  m_VCAutomaticAdd: 1
  m_VCDebugCom: 0
  m_VCDebugCmd: 0
  m_VCDebugOut: 0
  m_SemanticMergeMode: 2
  m_DesiredImportWorkerCount: 1
  m_StandbyImportWorkerCount: 1
  m_IdleImportWorkerShutdownDelay: 60000
  m_VCShowFailedCheckout: 1
  m_VCOverwriteFailedCheckoutAssets: 1
  m_VCProjectOverlayIcons: 1
  m_VCHierarchyOverlayIcons: 1
  m_VCOtherOverlayIcons: 1
  m_VCAllowAsyncUpdate: 1
  m_ArtifactGarbageCollection: 1
